<?xml version="1.0" encoding="UTF-8" standalone="no"?>
<!-- Generator: Adobe Illustrator 17.0.0, SVG Export Plug-In . SVG Version: 6.00 Build 0)  -->

<svg
   xmlns:dc="http://purl.org/dc/elements/1.1/"
   xmlns:cc="http://creativecommons.org/ns#"
   xmlns:rdf="http://www.w3.org/1999/02/22-rdf-syntax-ns#"
   xmlns:svg="http://www.w3.org/2000/svg"
   xmlns="http://www.w3.org/2000/svg"
   xmlns:sodipodi="http://sodipodi.sourceforge.net/DTD/sodipodi-0.dtd"
   xmlns:inkscape="http://www.inkscape.org/namespaces/inkscape"
   version="1.1"
   id="Слой_1"
   x="0px"
   y="0px"
   width="16"
   height="16"
   viewBox="0 0 16 16"
   enable-background="new 0 0 50 50"
   xml:space="preserve"
   inkscape:version="0.91 r13725"
   sodipodi:docname="list.svg"><metadata
     id="metadata13"><rdf:RDF><cc:Work
         rdf:about=""><dc:format>image/svg+xml</dc:format><dc:type
           rdf:resource="http://purl.org/dc/dcmitype/StillImage" /><dc:title></dc:title></cc:Work></rdf:RDF></metadata><defs
     id="defs11" /><sodipodi:namedview
     pagecolor="#ffffff"
     bordercolor="#666666"
     borderopacity="1"
     objecttolerance="10"
     gridtolerance="10"
     guidetolerance="10"
     inkscape:pageopacity="0"
     inkscape:pageshadow="2"
     inkscape:window-width="640"
     inkscape:window-height="480"
     id="namedview9"
     showgrid="false"
     inkscape:zoom="13.350176"
     inkscape:cx="13.190099"
     inkscape:cy="9.0778969"
     inkscape:window-x="0"
     inkscape:window-y="0"
     inkscape:window-maximized="0"
     inkscape:current-layer="Слой_1" /><path
     style="fill:#000000"
     d="m 4.0941884,1.9764309 c -0.6161546,0 -1.0567908,0.4388007 -1.0567908,1.0523665 l 0,10.0824926 c 0,0.52619 0.4403127,1.052366 1.0567908,1.052366 l 7.7470606,0 c 0.528133,0 1.056791,-0.526499 1.056791,-1.052366 l 0,-6.6630913 -2.641345,0 c -1.0565888,0 -1.9366073,-0.8766412 -1.9366073,-1.9290228 l 0,-2.542745 -4.2258993,0 z m 4.930005,0.2629336 0,2.2798114 c 0,0.6138893 0.5283247,1.1402218 1.2325016,1.1402218 l 2.289292,0 -3.5217936,-3.4200332 z m -3.6975036,5.1733452 0.9683033,0 0,0.9645112 -0.9683033,0 0,-0.9645112 z m 1.7608966,0.2629335 3.5211616,0 0,0.5264992 -3.5211616,0 0,-0.5264992 z m -1.7608966,1.5782337 0.9683033,0 0,0.9645111 -0.9683033,0 0,-0.9645111 z m 1.7608966,0.2629336 3.5211616,0 0,0.5264995 -3.5211616,0 0,-0.5264995 z m -1.7608966,1.5782335 0.9683033,0 0,0.964512 -0.9683033,0 0,-0.964512 z m 1.7608966,0.262933 3.5211616,0 0,0.5265 -3.5211616,0 0,-0.5265 z"
     id="path5"
     inkscape:connector-curvature="0" /></svg>